{
    "accountCoins": [
        {
            "balance": "34048450000000000"
        }
    ],
    "delegatedStakesFromOthers": [
        {
            "key": "00c60c1a85efcf3631c0a0dc9fc738c9fdc1818ac8",
            "value": {
                "acceptedDelegatedStakes": "2425000",
                "pendingDelegatedStakes": "0"
            }
        },
        {
            "key": "00eec031fab956a8264ee64bbd14883962d2aec0b7",
            "value": {
                "acceptedDelegatedStakes": "15000000",
                "pendingDelegatedStakes": "0"
            }
        },
        {
            "key": "0065e7d784dbf2bbf4b853b86501ff75372b1002fc",
            "value": {
                "acceptedDelegatedStakes": "0",
                "pendingDelegatedStakes": "20000"
            }
        }
    ],
    "delegatedStakesToOthers": [
        {
            "key": "006c6546e22aa72b7b2ea90b1ceefe6bb2e0e6f791",
            "value": "15858087"
        }
    ],
    "mpcTokens": "-3756256910",
    "pendingRetractedDelegatedStakes": [
        {
            "key": "1675499889430",
            "value": "50000"
        },
        {
            "key": "1675844496987",
            "value": "500000"
        },
        {
            "key": "1675846635670",
            "value": "150000"
        }
    ],
    "pendingUnstakes": [],
    "spentFreeTransactions": {
        "epoch": "798833",
        "spentFreeTransactions": "4"
    },
    "stakeable": true,
    "stakedToContract": [
        {
            "key": "01a2020bb33ef9e0323c7a3210d5cb7fd492aa0d65",
            "value": "1000000000"
        },
        {
            "key": "04f1ab744630e57fb9cfcd42e6ccbf386977680014",
            "value": "3043623000"
        },
        {
            "key": "04203b77743ad0ca831df9430a6be515195733ad91",
            "value": "250000000"
        }
    ],
    "stakedTokens": "4295373000",
    "storedPendingStakeDelegations": [
        {
            "key": "d4f1e82f461826804a64ae65b3b21486f9de7f894567aa647c7bd9a669302a11",
            "value": {
                "amount": "150000",
                "counterPart": "006c6546e22aa72b7b2ea90b1ceefe6bb2e0e6f791",
                "delegationType": "RETRACT_DELEGATED_STAKES"
            }
        },
        {
            "key": "2a64ddfe0f25cbe2479ccac28b3d77fb24d11be7786b814faa37298def4bc43b",
            "value": {
                "amount": "150000",
                "counterPart": "006c6546e22aa72b7b2ea90b1ceefe6bb2e0e6f791",
                "delegationType": "RETRACT_DELEGATED_STAKES"
            }
        },
        {
            "key": "445ade6fa5d490454f6ce58c213de1fcbd1e138bcd2ef7e0cbf4c7d6788f29af",
            "value": {
                "amount": "50000",
                "counterPart": "006c6546e22aa72b7b2ea90b1ceefe6bb2e0e6f791",
                "delegationType": "DELEGATE_STAKES"
            }
        }
    ],
    "storedPendingTransfers": [],
    "vestingAccounts": [
        {
            "releaseDuration": "63113904000",
            "releaseInterval": "7889238000",
            "releasedTokens": "536702875",
            "tokenGenerationEvent": "1661904000000",
            "tokens": "4293623000"
        },
        {
            "releaseDuration": "63113904000",
            "releaseInterval": "7889238000",
            "releasedTokens": "9302849",
            "tokenGenerationEvent": "1661904000000",
            "tokens": "74422799"
        },
        {
            "releaseDuration": "63113904000",
            "releaseInterval": "7889238000",
            "releasedTokens": "6619335",
            "tokenGenerationEvent": "1661904000000",
            "tokens": "52954684"
        },
        {
            "releaseDuration": "63113904000",
            "releaseInterval": "7889238000",
            "releasedTokens": "3399118",
            "tokenGenerationEvent": "1661904000000",
            "tokens": "27192946"
        }
    ]
}